…
``` r
# value labels
# - convert labelled values to R factors
svy <- haven::as_factor(svy)

# - check some value labels
svy_in[, c("var2O1", "var2O2")]
```

    ## # A tibble: 137 x 2
    ##           var2O1        var2O2
    ##        <dbl+lbl>     <dbl+lbl>
    ##  1 0 [Unchecked] 1 [Checked]  
    ##  2 0 [Unchecked] 0 [Unchecked]
    ##  3 0 [Unchecked] 0 [Unchecked]
    ##  4 0 [Unchecked] 0 [Unchecked]
    ##  5 0 [Unchecked] 0 [Unchecked]
    ##  6 0 [Unchecked] 0 [Unchecked]
    ##  7 0 [Unchecked] 0 [Unchecked]
    ##  8 0 [Unchecked] 0 [Unchecked]
    ##  9 0 [Unchecked] 0 [Unchecked]
    ## 10 1 [Checked]   0 [Unchecked]
    ## # ... with 127 more rows

``` r
svy[, c("var2O1", "var2O2")]
```

    ## # A tibble: 137 x 2
    ##    var2O1    var2O2   
    ##    <fct>     <fct>    
    ##  1 Unchecked Checked  
    ##  2 Unchecked Unchecked
    ##  3 Unchecked Unchecked
    ##  4 Unchecked Unchecked
    ##  5 Unchecked Unchecked
    ##  6 Unchecked Unchecked
    ##  7 Unchecked Unchecked
    ##  8 Unchecked Unchecked
    ##  9 Unchecked Unchecked
    ## 10 Checked   Unchecked
    ## # ... with 127 more rows
…
