…
``` r
# Save --------------------------------------------------------------------

out <- mget(c("person", "act", "basin"))
saveRDS(out, outfile)

# in csv format
sapply(names(out), function(nm) {
    write_list_csv(out, nm, outfile_csv)
})
```

    ## $person
    ## # A tibble: 1,373 x 9
    ##    Vrid  id      Vstatus  age    sex    income    race       race_other    hispanic
    ##    <chr> <chr>   <chr>    <chr>  <chr>  <chr>     <chr>      <chr>         <chr>   
    ##  1 98    C20583~ Complete 45 to~ Female Less tha~ White      ""            No      
    ##  2 99    C20583~ Complete 45 to~ Female Less tha~ Other      "unecessary ~ No      
    ##  3 100   C20583~ Partial  <NA>   <NA>   <NA>      <NA>       ""            <NA>    
    ##  4 101   C20583~ Complete 35 to~ Male   $25,000 ~ White      ""            No      
    ##  5 102   C20583~ Complete 35 to~ Female $50,000 ~ Black/Afr~ ""            No      
    ##  6 103   C20583~ Complete 18 to~ Male   $25,000 ~ White      ""            No      
    ##  7 104   C20583~ Complete 55 to~ Female $75,000 ~ White      ""            No      
    ##  8 105   C20583~ Complete 25 to~ Male   $50,000 ~ White      ""            No      
    ##  9 106   C20583~ Complete 45 to~ Female $35,000 ~ Black/Afr~ ""            No      
    ## 10 107   C20583~ Complete 35 to~ Male   $25,000 ~ White      ""            Yes     
    ## # ... with 1,363 more rows
    ## 
    ## $act
    ## # A tibble: 20,595 x 6
    ##    Vrid  act   part      part_water  days days_water
    ##    <chr> <chr> <chr>     <chr>      <dbl>      <dbl>
    ##  1 98    trail Unchecked <NA>          NA         NA
    ##  2 99    trail Unchecked <NA>          NA         NA
    ##  3 100   trail Unchecked <NA>          NA         NA
    ##  4 101   trail Unchecked <NA>          NA         NA
    ##  5 102   trail Unchecked <NA>          NA         NA
    ##  6 103   trail Unchecked <NA>          NA         NA
    ##  7 104   trail Unchecked <NA>          NA         NA
    ##  8 105   trail Unchecked <NA>          NA         NA
    ##  9 106   trail Unchecked <NA>          NA         NA
    ## 10 107   trail Checked   Yes           15         10
    ## # ... with 20,585 more rows
    ## 
    ## $basin
    ## # A tibble: 26,860 x 5
    ##    Vrid  act   basin    part      days_water
    ##    <chr> <chr> <chr>    <chr>          <dbl>
    ##  1 107   trail arkansas Checked            5
    ##  2 108   trail arkansas Unchecked         NA
    ##  3 110   trail arkansas Unchecked         NA
    ##  4 113   trail arkansas Checked            8
    ##  5 119   trail arkansas Unchecked         NA
    ##  6 127   trail arkansas Unchecked         NA
    ##  7 129   trail arkansas Checked            1
    ##  8 131   trail arkansas Unchecked         NA
    ##  9 140   trail arkansas Checked           12
    ## 10 152   trail arkansas Unchecked         NA
    ## # ... with 26,850 more rows
…
