…
    ## Warning: attributes are not identical across measure variables;
    ## they will be dropped

``` r
svy_raw %>%
    left_join(trail_basin_days, by = "Vrid") %>%
    filter(!is.na(var57), !is.na(trail_days), var57 / 2 >= trail_days, var57 >= 5) %>%
    select(Vrid, var57, trail_days) %>%
    arrange(Vrid)
```

    ## Warning: Column `Vrid` has different attributes on LHS and RHS of join

    ## # A tibble: 24 x 3
    ##    Vrid  var57 trail_days
    ##    <chr> <dbl>      <dbl>
    ##  1 1160     10          5
    ##  2 1188     15          7
    ##  3 1224     10          3
    ##  4 1228     10          2
    ##  5 1302     50          5
    ##  6 1320     20          9
    ##  7 1340     30         15
    ##  8 1353    150         45
    ##  9 168       5          2
    ## 10 242     100         15
    ## # ... with 14 more rows

``` r
filter(new_flags, act == "trail", days_water.y != 0) %>% arrange(Vrid)
```

    ## # A tibble: 24 x 7
    ##    Vrid  act    days days_water.x days_water.y  diff ratio
    ##    <chr> <chr> <dbl>        <dbl>        <dbl> <dbl> <dbl>
    ##  1 1160  trail   140           10            5    -5 0.5  
    ##  2 1188  trail     5           15            7    -8 0.467
    ##  3 1224  trail    70           10            3    -7 0.3  
    ##  4 1228  trail    30           10            2    -8 0.2  
    ##  5 1302  trail     3           50            5   -45 0.1  
    ##  6 1320  trail    40           20            9   -11 0.45 
    ##  7 1340  trail    60           30           15   -15 0.5  
    ##  8 1353  trail  1000          150           45  -105 0.3  
    ##  9 168   trail     5            5            2    -3 0.4  
    ## 10 242   trail   160          100           15   -85 0.15 
    ## # ... with 14 more rows
