…
# Save --------------------------------------------------------------------

saveRDS(svy, outfile)

# save as csvs (for Eric)
sapply(names(svy), function(nm) {
    write_list_csv(svy, nm, outfile_csv)
})
```

    ## $person
    ## # A tibble: 1,252 x 12
    ##    Vrid  id    Vstatus sex   race  race_other hispanic age_weight income_weight
    ##    <chr> <chr> <chr>   <chr> <chr> <chr>      <chr>    <chr>      <chr>        
    ##  1 98    C205~ Comple~ Fema~ White ""         No       35-54      0-25K        
    ##  2 99    C205~ Comple~ Fema~ Other "unecessa~ No       35-54      0-25K        
    ##  3 100   C205~ Partial <NA>  <NA>  ""         <NA>     <NA>       <NA>         
    ##  4 101   C205~ Comple~ Male  White ""         No       35-54      25-35K       
    ##  5 102   C205~ Comple~ Fema~ Blac~ ""         No       35-54      50-75K       
    ##  6 103   C205~ Comple~ Male  White ""         No       18-34      25-35K       
    ##  7 105   C205~ Comple~ Male  White ""         No       18-34      50-75K       
    ##  8 106   C205~ Comple~ Fema~ Blac~ ""         No       35-54      35-50K       
    ##  9 107   C205~ Comple~ Male  White ""         Yes      35-54      25-35K       
    ## 10 108   C205~ Comple~ Fema~ Asian ""         Yes      18-34      100-150K     
    ## # ... with 1,242 more rows, and 3 more variables: race_weight <chr>, flag <dbl>,
    ## #   weight <dbl>
    ## 
    ## $act
    ## # A tibble: 17,528 x 7
    ##    Vrid  act   is_targeted part       days part_water days_water
    ##    <chr> <chr> <lgl>       <chr>     <dbl> <chr>           <dbl>
    ##  1 98    trail TRUE        Unchecked    NA <NA>               NA
    ##  2 99    trail TRUE        Unchecked    NA <NA>               NA
    ##  3 100   trail TRUE        Unchecked    NA <NA>               NA
    ##  4 101   trail TRUE        Unchecked    NA <NA>               NA
    ##  5 102   trail TRUE        Unchecked    NA <NA>               NA
    ##  6 103   trail TRUE        Unchecked    NA <NA>               NA
    ##  7 105   trail TRUE        Unchecked    NA <NA>               NA
    ##  8 106   trail TRUE        Unchecked    NA <NA>               NA
    ##  9 107   trail TRUE        Checked      15 Yes                10
    ## 10 108   trail TRUE        Checked      10 Yes                 5
    ## # ... with 17,518 more rows
    ## 
    ## $basin
    ## # A tibble: 22,167 x 5
    ##    Vrid  act   basin    part_water days_water
    ##    <chr> <chr> <chr>    <chr>           <dbl>
    ##  1 107   trail arkansas Checked             5
    ##  2 108   trail arkansas Unchecked          NA
    ##  3 110   trail arkansas Unchecked          NA
    ##  4 113   trail arkansas Checked             8
    ##  5 119   trail arkansas Unchecked          NA
    ##  6 129   trail arkansas Checked             1
    ##  7 131   trail arkansas Unchecked          NA
    ##  8 140   trail arkansas Checked            12
    ##  9 157   trail arkansas Unchecked          NA
    ## 10 159   trail arkansas Unchecked          NA
    ## # ... with 22,157 more rows
