…
``` r
# value labels
# - convert labelled values to R factors
svy <- haven::as_factor(svy)

# - check some value labels
svy_in[, c("var2O1", "var2O2")]
```

    ## # A tibble: 1,373 x 2
    ##    var2O1    var2O2   
    ##    <dbl+lbl> <dbl+lbl>
    ##  1 0         1        
    ##  2 0         0        
    ##  3 0         0        
    ##  4 0         0        
    ##  5 0         0        
    ##  6 0         0        
    ##  7 0         0        
    ##  8 0         0        
    ##  9 0         0        
    ## 10 1         0        
    ## # ... with 1,363 more rows

``` r
svy[, c("var2O1", "var2O2")]
```

    ## # A tibble: 1,373 x 2
    ##    var2O1    var2O2   
    ##    <fct>     <fct>    
    ##  1 Unchecked Checked  
    ##  2 Unchecked Unchecked
    ##  3 Unchecked Unchecked
    ##  4 Unchecked Unchecked
    ##  5 Unchecked Unchecked
    ##  6 Unchecked Unchecked
    ##  7 Unchecked Unchecked
    ##  8 Unchecked Unchecked
    ##  9 Unchecked Unchecked
    ## 10 Checked   Unchecked
    ## # ... with 1,363 more rows
…
