…
    ## [1] TRUE

``` r
# 2. Days Recoding -------------------------------------------------------------

# Some respondents entered larger values for days_water than days
# All days values for these respondents (for given activity) are set to missing
#  since the days entered by these people are unreliable
high_water_days <- filter(svy$act, part_water == "Yes", days < days_water)
high_water_days
```

    ## # A tibble: 72 x 6
    ##    Vrid  act   part    part_water  days days_water
    ##    <chr> <chr> <chr>   <chr>      <dbl>      <dbl>
    ##  1 127   trail Checked Yes            5         10
    ##  2 299   trail Checked Yes            8         15
    ##  3 306   trail Checked Yes            2          4
    ##  4 508   trail Checked Yes            5         10
    ##  5 549   trail Checked Yes            5         30
    ##  6 856   trail Checked Yes           15         26
    ##  7 928   trail Checked Yes            2          3
    ##  8 1136  trail Checked Yes            7         12
    ##  9 1188  trail Checked Yes            5         15
    ## 10 1302  trail Checked Yes            3         50
    ## # ... with 62 more rows
…
    ## Warning: Column `Vrid` has different attributes on LHS and RHS of join
    
    ## Warning: Column `Vrid` has different attributes on LHS and RHS of join

``` r
# 3. Recode "none" in basins ----------------------------------------------

# The basins completey cover NE, so those who enter "none" shouldn't be
#  counted as along-the-water participants
no_basin <- filter(svy$basin, basin == "none", part == "Checked")
no_basin
```

    ## # A tibble: 96 x 5
    ##    Vrid  act   basin part    days_water
    ##    <chr> <chr> <chr> <chr>        <dbl>
    ##  1 152   trail none  Checked         NA
    ##  2 305   trail none  Checked         NA
    ##  3 223   bike  none  Checked         NA
    ##  4 367   bike  none  Checked         NA
    ##  5 432   bike  none  Checked         NA
    ##  6 531   bike  none  Checked         NA
    ##  7 605   bike  none  Checked         NA
    ##  8 736   bike  none  Checked         NA
    ##  9 800   bike  none  Checked         NA
    ## 10 329   camp  none  Checked         NA
    ## # ... with 86 more rows
…
